…
``` r
## binned_inc - character
## geography - character

cancer_data %>% 
  select(-binned_inc, -geography) %>% ##remove characters
  cor() %>% 
  as_tibble()
```

    ## # A tibble: 32 x 32
    ##    avg_ann_count avg_deaths_per_~ target_death_ra~ incidence_rate
    ##            <dbl>            <dbl>            <dbl>          <dbl>
    ##  1        1                0.939          -0.144          0.0736 
    ##  2        0.939            1              -0.0907         0.0627 
    ##  3       -0.144           -0.0907          1              0.449  
    ##  4        0.0736           0.0627          0.449          1      
    ##  5        0.269            0.223          -0.429         -0.00104
    ##  6        0.927            0.978          -0.120          0.0269 
    ##  7       -0.136           -0.0669          0.429          0.00905
    ##  8        0.0821           0.0635         -0.0223         0.0773 
    ##  9       -0.0241          -0.0246          0.00438        0.0181 
    ## 10       -0.125           -0.148          -0.0219        -0.0147 
    ## # ... with 22 more rows, and 28 more variables: med_income <dbl>,
    ## #   pop_est2015 <dbl>, poverty_percent <dbl>, study_per_cap <dbl>,
    ## #   median_age <dbl>, median_age_male <dbl>, median_age_female <dbl>,
    ## #   avg_household_size <dbl>, percent_married <dbl>, pct_no_hs18_24 <dbl>,
    ## #   pct_hs18_24 <dbl>, pct_some_col18_24 <dbl>, pct_bach_deg18_24 <dbl>,
    ## #   pct_hs25_over <dbl>, pct_bach_deg25_over <dbl>,
    ## #   pct_employed16_over <dbl>, pct_unemployed16_over <dbl>,
    ## #   pct_private_coverage <dbl>, pct_private_coverage_alone <dbl>,
    ## #   pct_emp_priv_coverage <dbl>, pct_public_coverage <dbl>,
…
``` r
## this looks like an issue - let's look further into median_age

cancer_data %>% 
  group_by(round(median_age)) %>% 
  summarize(n = n()) 
```

    ## # A tibble: 65 x 2
    ##    `round(median_age)`     n
    ##                  <dbl> <int>
    ##  1                  22     1
    ##  2                  23     2
    ##  3                  24     4
    ##  4                  25     6
    ##  5                  26     8
    ##  6                  27     6
    ##  7                  28    14
    ##  8                  29    17
    ##  9                  30    39
    ## 10                  31    32
    ## # ... with 55 more rows
…
``` r
## there are a ton of 0 values; this coule potentially be a data quality issue

cancer_data %>% 
  count(avg_household_size)
```

    ## # A tibble: 199 x 2
    ##    avg_household_size     n
    ##                 <dbl> <int>
    ##  1             0.0221     1
    ##  2             0.0222     2
    ##  3             0.0225     1
    ##  4             0.023      1
    ##  5             0.0236     1
    ##  6             0.0237     2
    ##  7             0.0239     1
    ##  8             0.024      3
    ##  9             0.0241     2
    ## 10             0.0242     3
    ## # ... with 189 more rows
…
